<?xml version="1.0" encoding="utf-8"?>
<!-- Generator: Adobe Illustrator 16.0.0, SVG Export Plug-In . SVG Version: 6.00 Build 0)  -->
<!DOCTYPE svg PUBLIC "-//W3C//DTD SVG 1.1//EN" "http://www.w3.org/Graphics/SVG/1.1/DTD/svg11.dtd" [
	<!ENTITY ns_flows "http://ns.adobe.com/Flows/1.0/">
	<!ENTITY ns_extend "http://ns.adobe.com/Extensibility/1.0/">
	<!ENTITY ns_ai "http://ns.adobe.com/AdobeIllustrator/10.0/">
	<!ENTITY ns_graphs "http://ns.adobe.com/Graphs/1.0/">
]>
<svg version="1.1" id="Слой_1" xmlns:x="&ns_extend;" xmlns:i="&ns_ai;" xmlns:graph="&ns_graphs;"
	 xmlns="http://www.w3.org/2000/svg" xmlns:xlink="http://www.w3.org/1999/xlink" xmlns:a="http://ns.adobe.com/AdobeSVGViewerExtensions/3.0/"
	 x="0px" y="0px" width="1899.7817383px" height="76.7348633px" viewBox="0 0 1899.7817383 76.7348633"
	 enable-background="new 0 0 1899.7817383 76.7348633" xml:space="preserve">
<path fill="#464646" d="M803.9775391,77.3022461c-5.7626953,0-15.9038086-1.0126953-17.3520508-1.4267578
	c-0.465332-0.1328125-1.5688477-0.2001953-3.2792969-0.2001953c-1.5585938,0-3.4238281,0.0517578-5.3984375,0.1074219
	c-2.0258789,0.0566406-4.1201172,0.1152344-5.9165039,0.1152344c-3.699707,0-7.527832-0.6142578-9.8149414-0.9814453
	c-0.8999023-0.1445313-1.6762695-0.2685547-1.9350586-0.2685547c-0.2709961,0-0.9780273,0.1396484-1.7963867,0.3017578
	c-1.90625,0.3769531-4.7861328,0.9482422-7.7036133,0.9482422c-1.7397461,0-3.3671875-0.3662109-5.2509766-0.7890625
	c-2.8994141-0.6503906-6.5083008-1.4609375-12.4990234-1.4609375c-6.6777344,0-10.7338867-1.2177734-13.6958008-2.1064453
	c-1.5170898-0.4550781-2.7148438-0.8144531-3.8447266-0.8955078c-3.4794922-0.2480469-10.8027344-0.2480469-13.2094727-0.2480469
	c-1.5805664,0-5.9008789,0.5332031-8.7597656,0.8867188c-1.9316406,0.2382813-2.953125,0.3632813-3.2402344,0.3632813
	c-0.2050781,0-0.4267578-0.0566406-0.7324219-0.1337891c-0.6005859-0.1523438-1.605957-0.40625-3.2636719-0.40625
	c-1.925293,0-4.234375,0.34375-6.8623047,1.0214844c-2.3408203,0.6044922-4.6308594,0.8984375-7,0.8984375
	c-2.8886719,0-5.3017578-0.4550781-7.0634766-0.7871094c-0.8359375-0.1572266-1.5576172-0.2929688-2.1293945-0.3457031
	C661.8808594,71.7729492,654.8242188,71.7729492,648,71.7729492c-9.4130859,0-13.5922852-0.0136719-14.1064453-0.1425781
	c-0.8388672-0.2099609-6.5009766-1.0224609-11.8623047-1.0224609c-0.6640625,0-1.3266602,0.0117188-1.9765625,0.0390625
	c-0.3896484,0.0166016-0.784668,0.0234375-1.1855469,0.0234375c-3.4350586,0-7.2099609-0.5605469-10.5410156-1.0556641
	c-2.265625-0.3369141-4.40625-0.6542969-5.9858398-0.7177734c-0.2133789-0.0087891-0.4223633-0.0126953-0.6269531-0.0126953
	c-3.5805664,0-5.8837891,1.2617188-5.9067383,1.2744141l-0.3222656,0.0703125l-4.0605469-0.3251953
	c-0.7495117,0.2236328-3.3828125,0.9941406-4.0610352,0.9941406h-24.5688477
	c-0.5410156,0.1875-3.1772461,1.0527344-5.7446289,1.0527344c-0.3652344,0-0.7285156-0.0175781-1.0825195-0.0566406
	c-2.8354492-0.3154297-21.6044922-0.5976563-23.1020508-0.6201172c-0.6523438,0.2080078-4.4638672,1.3994141-6.3134766,1.3994141
	c-0.1796875,0-0.3417969-0.0107422-0.4829102-0.0322266c-1.2431641-0.1914063-7.8427734-0.2431641-11.2216797-0.2431641
	c-0.5585938,0.1328125-4.2265625,0.984375-6.9243164,0.984375c-0.5786133,0-1.0825195-0.0400391-1.4990234-0.1201172
	c-1.1733398-0.2236328-3.2353516-0.4892578-6.394043-0.4892578c-0.1157227,0-0.5107422,0.1279297-0.8286133,0.2314453
	c-0.8935547,0.2900391-2.2436523,0.7285156-3.8032227,0.7285156c-0.6455078,0-1.2783203-0.0771484-1.8808594-0.2275391
	c-2.9663086-0.7412109-8.262207-1.2324219-9.6123047-1.2324219c-0.6484375,0-1.9160156,0.4296875-3.0341797,0.8085938
	c-1.0932617,0.3710938-2.0371094,0.6914063-2.5908203,0.6914063c-0.2211914,0-1.0844727-0.0302734-2.3188477-0.0742188
	c-3.1606445-0.1103516-8.4501953-0.2958984-11.902832-0.2958984c-1.9311523,0-2.6557617,0.0595703-2.9238281,0.1103516
	c-1.9555664,0.3662109-2.9570313,0.6152344-2.9667969,0.6171875l-0.1245117,0.0166016
	c-0.1074219,0.0029297-10.8081055,0.2509766-15.2631836,0.2509766c-3.0380859,0-6.2744141,0.2265625-8.4155273,0.3769531
	c-1.0126953,0.0712891-1.7441406,0.1230469-2.0844727,0.1230469c-0.1591797,0-0.6762695-0.0205078-1.4824219-0.0537109
	c-2.7573242-0.1113281-9.215332-0.3730469-16.2304688-0.3730469c-4.0336914,0-7.6806641,0.0869141-10.840332,0.2578125
	c-2.3012695,0.1240234-4.9628906,0.1865234-7.9101563,0.1865234c-7.4594727,0-15.1972656-0.3896484-20.3173828-0.6474609
	c-2.3515625-0.1191406-4.0507813-0.2041016-4.8022461-0.2041016c-0.5527344,0-1.7382813-0.0224609-3.3457031-0.0537109
	c-3.4355469-0.0654297-8.6274414-0.1640625-13.7905273-0.1640625c-6.9536133,0-11.7021484,0.1835938-14.1132813,0.5449219
	c-1.6723633,0.2509766-4.0576172,0.3779297-7.090332,0.3779297c-4.8720703,0-10.4082031-0.3183594-14.0712891-0.5302734
	c-1.7041016-0.0976563-3.0507813-0.1748047-3.5888672-0.1748047c-2.2758789,0-100.8574219-0.4814453-104.5698242-0.5
	c-6.609375,2.3515625-16.2670898,3.5439453-28.7080078,3.5439453c-2.2426758,0-4.1523438-0.0380859-5.5527344-0.0654297
	c-0.8046875-0.0166016-1.4399414-0.0283203-1.8720703-0.0283203c-0.1845703,0-0.3300781,0.0019531-0.4326172,0.0078125
	c-0.0751953,0.0039063-0.1494141,0.0058594-0.2236328,0.0058594c-1.1206055,0-2.0976563-0.4589844-3.0429688-0.9033203
	c-0.8925781-0.4199219-1.7358398-0.8164063-2.6513672-0.8164063c-0.1352539,0-0.2729492,0.0087891-0.4135742,0.0273438
	c-1.3139648,0.1777344-6.7197266,0.2402344-10.9492188,0.2402344c-1.5805664,0-9.5092773-0.0117188-10.3999023-0.2548828
	c-0.2260742-0.0615234-0.4536133-0.1523438-0.7070313-0.2548828c-0.6254883-0.2548828-1.4042969-0.5712891-2.8920898-0.5712891
	c-0.949707,0-2.090332,0.1318359-3.390625,0.3916016c-1.5112305,0.3027344-3.0375977,0.4560547-4.5371094,0.4560547
	c-2.5683594,0-4.1630859-0.4472656-4.2299805-0.4667969l0,0c-0.0209961,0-6.019043-0.9824219-14.3608398-1.2285156
	c-6.6865234-0.1962891-13.2524414-2.1621094-16.0566406-3.0009766c-0.6152344-0.1845703-1.1967773-0.3583984-1.3300781-0.375
	c-0.0014648,0-0.0039063,0-0.0058594,0c-0.0634766,0-0.3442383-0.0146484-0.777832-0.0400391
	c-1.6196289-0.09375-5.4130859-0.3144531-9.2675781-0.3144531c-4.612793,0-7.8388672,0.3242188-9.3295898,0.9384766
	c-1.3735352,0.5654297-3.3369141,0.8408203-6.0014648,0.8408203c-1.8168945,0-3.6821289-0.1240234-5.3276367-0.2324219
	c-1.2895508-0.0859375-2.402832-0.1591797-3.2495117-0.1591797c-0.4980469,0-0.8657227,0.0263672-1.0932617,0.0791016
	c-1.6933594,0.390625-6.4155273,1.2470703-9.4169922,1.2470703c-0.4960938,0-0.9287109-0.0244141-1.2856445-0.0722656
	c-0.7319336-0.0966797-2.2402344-0.1425781-4.7456055-0.1425781c-2.0483398,0-4.5639648,0.0302734-7.3369141,0.0625
	c-3.4101563,0.0410156-7.2094727,0.0859375-11.0087891,0.0859375c-6.2587891,0-8.8676758-0.6748047-10.7729492-1.1660156
	c-1.1044922-0.2851563-1.9765625-0.5107422-3.2265625-0.5107422c-0.152832,0-0.3115234,0.0029297-0.4770508,0.0097656
	c-1.1875,0.0498047-3.1044922,0.0742188-5.6982422,0.0742188c-4.4067383,0-9.315918-0.0732422-9.3652344-0.0732422
	l-0.5581055-0.5673828V5.3295898l0.5581055-0.5668945c0,0,4.8334961-0.0737305,8.6000977-0.0737305
	c2.2324219,0,3.5927734,0.0249023,4.1582031,0.0761719c0.1049805,0.0097656,0.2089844,0.0136719,0.3134766,0.0136719
	c0.6679688,0,1.3544922-0.1826172,2.1489258-0.394043c1.09375-0.2905273,2.3330078-0.6201172,3.9790039-0.6201172
	c1.7597656,0.0014648,2.8461914,0.2709961,3.8046875,0.5087891c0.6977539,0.1733398,1.300293,0.3227539,2.0356445,0.3227539
	c0.6245117,0,1.1928711-0.1298828,1.9125977-0.2939453c1.0869141-0.2480469,2.4394531-0.5566406,4.6298828-0.5566406
	c0.3085938,0,0.6352539,0.0058594,0.9799805,0.0195313c2.5185547,0.0976563,4.1054688,0.4707031,5.6401367,0.8310547
	C39.3525391,4.8681641,40.4472656,5.125,41.918457,5.265625c0.2949219,0.027832,0.5722656,0.0410156,0.8334961,0.0410156
	c0.0024414,0,0.0048828,0,0.0073242,0c1.6977539,0,2.6933594-0.543457,3.4936523-0.9804688
	c0.4814453-0.2626953,0.8969727-0.4897461,1.3662109-0.5561523c0.6484375-0.0913086,2.4624023-0.1977539,5.4384766-0.1977539
	c2.3173828,0,4.7851563,0.0649414,7.3354492,0.1933594c0.5981445,0.0297852,1.1621094,0.043457,1.6933594,0.043457
	c5.0898438,0,7.1132813-1.2734375,7.1333008-1.2866211l0.3100586-0.0932617
	c0.5664063-0.0014648,56.8349609-0.1665039,71.3349609-0.1665039c13.6538086,0,18.394043,1.2871094,19.0961914,1.5043945
	c0.4755859,0.0117188,2.9580078,0.0708008,5.5087891,0.0708008c1.6538086,0,3.0117188-0.0244141,4.0351563-0.0722656
	c0.7250977-0.034668,2.1879883-0.1118164,4.1020508-0.2128906c7.4272461-0.3925781,21.2514648-1.1235352,25.7578125-1.1235352
	c5.6376953,0,15.96875,1.3266602,16.0727539,1.340332l100.8491211-0.0048828
	c1.2416992-0.3500977,14.2871094-4.0068359,17.8666992-4.2866211c0.3959961-0.03125,0.7651367-0.0449219,1.1098633-0.0449219
	c2.3725586,0,3.6162109,0.6455078,4.0947266,0.9731445c1.140625-0.1362305,6.277832-0.7172852,10.7290039-0.7172852
	c3.0029297,0,5.1347656,0.2651367,6.3369141,0.7875977c2.6611328,1.1572266,6.4082031,1.3134766,9.7216797,1.3134766
	c0.7075195,0,1.394043-0.0073242,2.0449219-0.0146484c0.5908203-0.0063477,1.152832-0.0126953,1.6743164-0.0126953
	c4.1147461,0,11.3198242,0.2709961,14.3041992,1.0170898c0.4511719,0.112793,0.9936523,0.1699219,1.612793,0.1699219
	c1.5444336-0.0004883,3.3852539-0.3520508,5.0097656-0.6621094c1.4130859-0.2700195,2.7480469-0.5249023,3.7397461-0.5249023
	c1.4487305,0,3.6396484,0.5454102,5.7592773,1.0727539c1.6489258,0.4106445,3.3549805,0.8349609,4.546875,0.9536133
	c0.277832,0.0273438,0.6362305,0.0375977,1.0620117,0.0375977c0.6748047-0.0004883,1.5107422-0.0263672,2.4575195-0.0556641
	c1.2504883-0.0385742,2.6928711-0.0830078,4.2133789-0.0830078c5.0874023,0,8.6420898,0.5151367,11.1870117,1.621582
	c3.878418,1.6865234,7.4365234,1.9189453,10.7036133,1.9189453c1.6079102-0.0004883,3.2954102-0.0678711,5.0820313-0.1391602
	l1.9682617-0.0761719c5.2495117-0.1875,6.6176758-0.5063477,8.2016602-0.8759766
	c0.5126953-0.1196289,1.0405273-0.2421875,1.7167969-0.3652344c0.9213867-0.1674805,2.1020508-0.2421875,3.8291016-0.2421875
	c0.7646484,0,1.5678711,0.0141602,2.3886719,0.027832c0.8496094,0.0151367,1.71875,0.0297852,2.5820313,0.0297852
	c1.0683594,0,1.9731445-0.0239258,2.7666016-0.0732422c1.5600586-0.0976563,2.5605469-0.4335938,3.6196289-0.7895508
	c1.4155273-0.4755859,2.8798828-0.9672852,5.7006836-0.9672852c0.3867188,0,0.7993164,0.0092773,1.2407227,0.0292969
	c2.940918,0.1337891,5.987793,0.4814453,8.9335938,0.8178711c2.9677734,0.3383789,5.7709961,0.6582031,7.7905273,0.6582031
	c1.1557617,0,2.9072266-0.0419922,4.8881836-0.0893555c2.6098633-0.0620117,5.5683594-0.1328125,8.1303711-0.1328125
	c2.6162109,0,4.3564453,0.0751953,5.3212891,0.2294922c3.7851563,0.6054688,12.1611328,1.7509766,16.7695313,1.7504883
	c0.2163086,0,0.4257813-0.0024414,0.6254883-0.0073242c5.0400391-0.1328125,19.1547852-0.765625,24.4638672-1.2480469
	c0.6977539-0.0634766,1.4248047-0.0942383,2.2231445-0.0942383c1.9511719,0,3.8813477,0.1850586,5.7475586,0.3642578
	c1.565918,0.1503906,3.0449219,0.2919922,4.2954102,0.2919922c1.0097656,0,1.7797852-0.0932617,2.355957-0.2851563
	c1.1240234-0.3745117,2.7211914-0.5493164,5.0273438-0.5493164c1.5615234,0,3.2241211,0.0820313,4.6914063,0.1547852
	c1.2036133,0.059082,2.340332,0.1152344,3.2104492,0.1152344c3.1362305,0,22.8461914-0.6245117,27.706543-0.9980469
	c1.6289063-0.1254883,3.4257813-0.2929688,5.1611328-0.4541016c3.0019531-0.2797852,5.8378906-0.5439453,7.3168945-0.5439453
	c0.2402344,0,0.4462891,0.0073242,0.6132813,0.0214844c1.2412109,0.1049805,2.7314453,0.3613281,4.0463867,0.5874023
	c0.5756836,0.0986328,1.125,0.1933594,1.6171875,0.269043c0.1572266,0.0239258,0.3149414,0.034668,0.4731445,0.034668
	c0.7060547,0,1.4423828-0.2094727,2.2216797-0.4306641c0.6879883-0.1953125,1.3994141-0.3974609,2.128418-0.4604492
	C629.6118164,3.7626953,629.9223633,3.75,630.2626953,3.75c1.503418,0,3.5,0.2426758,7.4780273,0.7255859l1.0253906,0.1245117
	c0.9936523,0.1206055,1.9228516,0.1816406,2.7612305,0.1816406c2.0102539,0,3.2397461-0.3466797,4.2280273-0.6254883
	c0.6132813-0.1728516,1.1425781-0.3222656,1.7319336-0.3686523c0.3754883-0.0292969,0.9731445-0.0429688,1.8803711-0.0429688
	c1.0234375,0,2.315918,0.0175781,3.7060547,0.0371094c1.6098633,0.0219727,3.3510742,0.0458984,4.9541016,0.0458984
	c1.0864258,0,2.109375-0.0112305,2.9838867-0.0415039c4.0341797-0.1386719,7.3173828-1.1538086,7.3500977-1.1640625
	l0.1665039-0.0258789l32-0.1665039c0.0009766,0,19.7426758-0.0742188,34.6132813-0.0742188
	c8.6103516,0,13.8496094,0.0249023,15.5722656,0.0742188c2.2583008,0.0639648,4.9970703,0.3051758,7.8969727,0.5605469
	c4.2958984,0.3779297,9.1650391,0.8066406,13.9575195,0.8066406c0.4287109,0,0.8588867-0.003418,1.2866211-0.0107422
	c4.0048828-0.0673828,8.409668-0.4956055,12.6694336-0.9091797c4.7949219-0.4663086,9.7524414-0.9477539,14.340332-0.9477539
	c8.1972656,0,15.453125,1.6713867,16.2338867,1.8569336c1.8891602,0.0019531,43.5981445,0.0454102,72.0810547,0.0454102
	c21.0649414,0,25.8696289-0.0244141,26.1914063-0.0444336c0.6123047-0.0380859,2.6923828-0.6425781,4.8950195-1.2822266
	c3.3603516-0.9760742,7.5419922-2.1904297,10.0742188-2.4882813c0.9912109-0.1166992,2.1162109-0.1757813,3.3432617-0.1757813
	c3.2558594,0,6.1513672,0.40625,6.3007813,0.4272461c-0.0004883-0.0068359,2.9057617-0.0605469,5.8666992-0.0605469
	c1.7485352,0,3.1616211,0.0185547,4.2006836,0.0556641c3.340332,0.1191406,7.9321289,0.8964844,8.5209961,0.9985352
	c0.4355469-0.0112305,3.3291016-0.0805664,6.7402344-0.0805664c3.4833984,0,6.3447266,0.0698242,8.5048828,0.2080078
	c3.0400391,0.1938477,5.2675781,0.4165039,7.0566406,0.5957031c1.6123047,0.1611328,2.7773438,0.277832,3.6572266,0.277832
	c0.9697266,0,1.8945313-0.3857422,2.7099609-0.7260742c0.6728516-0.28125,1.2548828-0.5239258,1.7900391-0.5239258
	c1.0556641,0,6.7314453,0.5043945,8.6796875,1.1542969c1.7001953,0.5664063,8.7822266,0.8271484,15.03125,1.0571289
	l1.0605469,0.0390625c5.6035156,0.2075195,10.6845703,2.1362305,13.1259766,3.0629883
	c0.5488281,0.2084961,0.9785156,0.3725586,1.2695313,0.4614258c0.1074219,0.0336914,0.6513672,0.1416016,3.1240234,0.1416016
	c5.4052734,0,15.4697266-0.4990234,16.9794922-0.7817383c1.9960938-0.3740234,3.8671875-0.7485352,3.8681641-0.7485352
	l0.1132813-0.0112305l12.40625,0.0410156c0.5791016-0.3823242,2.6513672-1.6430664,4.7929688-1.6430664
	c2.3896484,0.0239258,11.5576172,1.1015625,11.9472656,1.1474609l26.2675781-0.0039063
	c0.8183594,0,1.7578125,0.3862305,2.5117188,0.6972656c0.2998047,0.1230469,0.7099609,0.2919922,0.8320313,0.3032227
	c0,0,1.8417969,0.0400391,4.4257813,0.1015625c7.7539063,0.1831055,23.8876953,0.5649414,27.3964844,0.5649414
	c4.5039063,0,7.7802734-1.1240234,7.8134766-1.1352539l0.1933594-0.0317383
	c2.7509766,0.0341797,26.9052734,0.3388672,28.0732422,0.5063477c0.0458984,0.0063477,0.0976563,0.0087891,0.15625,0.0087891
	c0.6621094,0,2.0419922-0.3203125,3.2587891-0.6020508c1.2851563-0.2978516,2.4990234-0.5795898,3.1728516-0.5795898
	c0.3076172,0,0.9560547,0.0634766,1.9384766,0.159668c2.0664063,0.2016602,5.1884766,0.5073242,8.0361328,0.5073242
	c2.3359375,0,4.0068359-0.2089844,4.9677734-0.6210938c1.1914063-0.5107422,2.5527344-0.7587891,4.1611328-0.7587891
	c1.3164063,0,2.6259766,0.1655273,3.78125,0.3110352c0.9599609,0.1210938,1.8671875,0.2353516,2.6152344,0.2353516
	c1.4453125,0,2.8466797-0.2548828,4.0839844-0.4799805c0.9765625-0.1772461,1.8193359-0.3305664,2.5195313-0.3305664
	c1.5117188,0.0229492,11.0566406,1.2929688,12.3427734,1.4648438c0.7851563-0.2436523,4.9023438-1.3349609,16.046875-1.4643555
	c6.1787109-0.0717773,7.9912109-0.4614258,8.515625-0.659668l0.1572266-0.8637695h78.8339844
	c7.0917969,0,9.4248047,0.8271484,10.1259766,1.5302734c1.5126953,0.0366211,8.8173828,0.2050781,13.9785156,0.2050781
	c4.2919922,0,5.0351563-0.1201172,5.1611328-0.1577148c1.5537109-0.671875,15.0019531-1.4111328,19.0664063-1.4111328
	c5.0644531,0,17.0273438,0.9746094,18.1904297,1.3896484c1.1699219,0.1738281,33.0048828,0.3847656,60.7568359,0.3847656
	c23.9433594,0,38.5224609-0.1489258,39.9970703-0.4086914c1.8642578-0.3286133,5.2070313-1.2104492,8.4404297-2.0629883
	c4.0498047-1.0683594,7.8759766-2.0771484,9.484375-2.2167969c0.3076172-0.0273438,0.6035156-0.0385742,0.8867188-0.0385742
	c1.3671875,0,2.4658203,0.2788086,3.2685547,0.4824219c0.4541016,0.1157227,0.8466797,0.215332,1.1005859,0.215332
	c0.0712891,0,0.1142578-0.0078125,0.1376953-0.0146484c0.2412109-0.0688477,0.8496094-0.1333008,3.6367188-0.1333008
	c2.2158203,0,5.0556641,0.0424805,7.2441406,0.074707c1.3671875,0.0205078,2.4794922,0.0366211,3.0244141,0.0366211
	c1.3515625,0,2.3818359,0.4189453,3.2900391,0.7890625c0.6074219,0.2470703,1.1816406,0.4804688,1.7871094,0.5634766
	c0.3632813,0.0493164,1.2695313,0.074707,2.6953125,0.074707c0.0068359,0,0.0136719,0,0.0205078,0
	c1.5322266,0,3.4472656-0.0273438,5.2509766-0.0537109c1.609375-0.0234375,3.1298828-0.0454102,4.2109375-0.0454102
	c0.5498047,0,0.9892578,0.0058594,1.2724609,0.0200195c0.8105469,0.0390625,2.6826172,0.28125,4.8505859,0.5620117
	c3.0683594,0.3974609,6.5458984,0.8476563,7.9599609,0.8476563c0.09375,0,0.1787109-0.0019531,0.2519531-0.0063477
	c0.7197266-0.0454102,1.8525391-0.2944336,3.0517578-0.5581055c1.8037109-0.3969727,3.8476563-0.8461914,5.4736328-0.8461914
	c0.2402344,0,0.4707031,0.0097656,0.6884766,0.0307617c0.7578125,0.0717773,1.7900391,0.2338867,3.0966797,0.4394531
	c3.3632813,0.527832,8.4443359,1.3261719,15.5029297,1.6835938c9.2617188,0.46875,16.0078125,2.9370117,16.8447266,3.2558594
	c0.6679688,0.0429688,5.1494141,0.3198242,9.9179688,0.3198242c4.828125,0,8.3417969-0.2724609,10.4433594-0.809082
	c4.0361328-1.0302734,9.3681641-1.184082,12.1865234-1.184082c1.1992188,0,2.0566406,0.0263672,2.359375,0.0375977
	c2.0839844-0.7954102,4.7910156-1.1821289,8.2705078-1.1821289c3.1835938,0,6.6357422,0.3144531,9.9755859,0.6186523
	c3.2412109,0.2954102,6.3027344,0.5742188,9.0390625,0.5742188c0.2402344,0,0.4794922-0.0019531,0.7148438-0.0068359
	c0.5029297-0.0097656,1.0185547-0.0146484,1.5429688-0.0146484c4.9248047,0,10.7285156,0.4145508,15.3925781,0.7470703
	c3.2646484,0.2329102,6.0830078,0.434082,7.7412109,0.434082c2.1376953,0,7.53125,0.3916016,13.2402344,0.8061523
	c5.8261719,0.4233398,11.8505859,0.8608398,14.2597656,0.8608398c3.1933594,0,4.1425781-0.2973633,5.4550781-0.7080078
	c0.5996094-0.1879883,1.2792969-0.4008789,2.2587891-0.6123047c1.8740234-0.4057617,8.7929688-0.4223633,15.4833984-0.4384766
	c4.4980469-0.0107422,8.7460938-0.0209961,10.6806641-0.1567383c4.5263672-0.3178711,5.5751953-0.6279297,5.6181641-0.6411133
	l0.2109375-0.0253906c0.0976563,0.0063477,9.8613281,0.6655273,18.7021484,0.6655273
	c5.1699219,0,9.0078125-0.2211914,11.4072266-0.6577148c3.2402344-0.5893555,6.8261719-0.8881836,10.6582031-0.8881836
	c3.1650391,0,5.3847656,0.2075195,5.8085938,0.25c0.5712891-0.0771484,4.6953125-0.6357422,6.5527344-0.9067383
	c0.1591797-0.0234375,0.3232422-0.0341797,0.4931641-0.0341797c0.8378906,0,1.7490234,0.2675781,2.7128906,0.5507813
	c1.0224609,0.2998047,2.0800781,0.6103516,3.0898438,0.6103516c0.4511719,0,0.8544922-0.0610352,1.2324219-0.1870117
	c2.6787109-0.8930664,7.2705078-0.9443359,7.4648438-0.9458008l0.515625,0.3198242
	c0.4941406,0.6259766,5.40625,1.1381836,9.7236328,1.2197266l3.1464844-1.2099609l0.2421875-0.0366211
	c0.0322266,0.0019531,3.2529297,0.2207031,7.4052734,0.2207031c2.4384766,0,4.7148438-0.0742188,6.765625-0.2207031
	c6.1552734-0.4399414,7.0390625-1.5327148,7.046875-1.5439453l0.4931641-0.2905273h27.25l0.5673828,0.5668945v66.8339844
	l-0.5673828,0.5673828h-19.8808594c-0.4863281,0.2099609-2.4375,1.0341797-4.2314453,1.4824219
	c-0.4609375,0.1152344-1.2138672,0.171875-2.3007813,0.171875c-2.8896484,0-7.3447266-0.4082031-8.4091797-0.5097656
	c-1.9599609,1.3828125-9.0146484,1.4248047-9.8447266,1.4248047c-0.9628906,0-3.3173828-0.0332031-4.3681641-0.3427734
	c-2.0175781-0.59375-4.3173828-0.6015625-4.3398438-0.6015625c-0.0595703,0.0019531-7.9892578,0.2695313-14.8769531,0.2695313
	c-8.5986328,0-9.7919922-0.4150391-10.1845703-0.5517578c-2.7958984-0.9726563-5.7529297-1.2197266-17.5751953-1.4677734
	c-1.0761719-0.0234375-2.0693359-0.0332031-2.9882813-0.0332031c-8.7255859,0-10.5185547,0.9169922-10.5908203,0.9560547
	l-0.3222656,0.0751953c-0.1103516-0.0068359-11.0878906-0.7460938-18.1738281-0.7460938
	c-4.5976563,0-5.4580078,0.3154297-5.6123047,0.4111328c-0.8173828,0.5107422-1.8730469,0.7597656-3.2275391,0.7597656
	c-0.9599609,0-1.8535156-0.1259766-2.5058594-0.2177734c-0.3105469-0.0429688-0.5527344-0.0800781-0.6923828-0.0800781
	c-0.7177734,0-24.4423828,0.1142578-26.4824219,0.1240234c-1.5634766,0.8007813-4.3271484,1.1904297-8.4384766,1.1904297
	c-2.4599609,0-4.8505859-0.1416016-6.4316406-0.2353516c-0.7568359-0.0449219-1.3212891-0.0791016-1.6064453-0.0791016
	c-1.3544922,0-3.6191406,0.4814453-4.7080078,0.7128906l-0.515625,0.1074219
	c-0.0849609,0.0175781-0.1904297,0.0273438-0.3115234,0.0273438c-1.0771484,0-3.7333984-0.8115234-4.3652344-1.0097656
	c-0.7001953,0.0546875-4.6503906,0.3828125-6.2402344,0.9599609c-0.4306641,0.15625-0.90625,0.2353516-1.4121094,0.2353516
	c-1.1943359,0-2.3466797-0.4257813-3.2724609-0.7675781c-0.3125-0.1162109-0.5927734-0.2197266-0.8300781-0.2880859
	c-0.1982422-0.0556641-1.109375-0.1875-5.3056641-0.1875c-2.0244141,0-3.9355469,0.03125-4.4140625,0.0390625l-2.8945313,1.2880859
	l-0.2255859,0.0488281l-17.7617188,0.1650391l-2.4306641,0.6494141l-0.1269531,0.0185547
	c-0.0712891,0.0029297-7.2646484,0.2529297-13.3183594,0.2529297c-7.0341797,0-8.0478516-0.3388672-8.3808594-0.4492188
	c-0.546875-0.1826172-1.0869141-0.2714844-1.6513672-0.2714844c-0.8574219,0-1.5869141,0.2041016-2.2304688,0.3847656
	c-0.4794922,0.1337891-0.8935547,0.25-1.2705078,0.25c-0.0966797,0-0.7158203,0.0097656-1.7578125,0.0273438
	c-5.6669922,0.09375-22.9140625,0.3779297-37.2792969,0.3779297c-19.7714844,0-20.828125-0.5527344-21.2255859-0.7617188
	c-0.7636719-0.3994141-3.4179688-0.8769531-11.7275391-0.8769531c-3.5888672,0-7.296875,0.0869141-10.0039063,0.1494141
	l-1.8691406,0.0429688c-2.0615234,0.0419922-4.3125,0.1455078-6.6962891,0.2548828
	c-3.9365234,0.1806641-8.3974609,0.3857422-13.3916016,0.3857422c-0.7958984,0-1.6064453-0.0048828-2.4316406-0.015625
	c-9.0253906-0.1240234-28.5634766-0.7441406-28.7597656-0.7509766l-83.8574219,0.0009766
	c-0.8291016,0-2.6806641,0.4775391-5.0244141,1.0830078c-2.3457031,0.6064453-5.2636719,1.3603516-8.6142578,2.0302734
	c-2.5478516,0.5097656-4.6464844,0.7578125-6.4179688,0.7578125c-1.9501953,0-3.0986328-0.3095703-3.9375-0.5351563
	l-0.3935547-0.1035156c-0.3417969-0.0849609-0.9082031-0.125-1.7841797-0.125c-0.7480469,0-1.6572266,0.0283203-2.7207031,0.0605469
	c-1.4824219,0.0458984-3.3271484,0.1025391-5.4335938,0.1025391c-0.6962891,0-1.4257813-0.0068359-2.1845703-0.0205078
	c-4.1904297-0.0810547-5.4023438-0.6875-6.2041016-1.0878906c-0.3808594-0.1904297-0.5908203-0.2958984-1.0410156-0.2958984
	c-0.0654297,0-0.1347656,0.0029297-0.2089844,0.0068359c-1.1982422,0.0751953-9.1660156,0.1992188-15.5332031,0.1992188
	c-6.6376953,0-7.4960938-0.0683594-7.7177734-0.4160156c-0.375-0.1767578-1.7333984-0.515625-3.2275391-0.515625
	c-1.1044922,0-2.0224609,0.1855469-2.65625,0.5371094c-0.8515625,0.4736328-1.9765625,0.7138672-3.3427734,0.7138672
	c-1.6904297,0-3.6933594-0.4169922-4.2861328-0.8916016c-0.3779297-0.1953125-2.9248047-0.3828125-5.8730469-0.5996094
	c-2.5273438-0.1865234-5.6728516-0.4179688-9.3291016-0.7783203c-9.7333984-0.9599609-14.7607422-2.1679688-16.4707031-2.6435547
	c-0.4589844-0.1269531-2.1982422-0.3408203-8.6992188-0.3408203c-4.3886719,0-8.8945313,0.0976563-9.453125,0.1103516
	c-0.5800781,0.1328125-4.9921875,1.1269531-6.8212891,1.1269531c-0.2373047,0-0.5839844-0.0048828-1.015625-0.0087891
	c-0.7070313-0.0087891-1.6435547-0.0195313-2.7021484-0.0195313c-5.046875,0-8.4960938,0.2548828-10.2509766,0.7558594
	c-1.0986328,0.3134766-2.6914063,0.4667969-4.8691406,0.4667969c-2.1523438,0-4.4628906-0.1455078-6.5-0.2744141
	c-1.453125-0.0908203-2.7080078-0.1699219-3.5371094-0.1699219c-9.7939453,0-26.4628906-0.0859375-28.0654297-0.6582031
	c-1.4541016-0.5195313-3.6845703-0.7753906-4.8837891-0.9130859l-0.4960938-0.0585938
	c-0.109375-0.0107422-0.7792969-0.0302734-4.0058594-0.0302734c-8.9042969,0-29.6416016,0.1464844-31.3134766,0.1591797
	c-0.4726563,0.1816406-2.4111328,0.8759766-4.4853516,0.8759766c-2.1748047,0-24.9101563-0.2363281-26.2001953-0.25
	c-0.6123047,0.1142578-4.046875,0.75-4.7998047,0.75c-0.4121094,0-4.15625,0.0371094-7.5214844,0.0712891
	c-2.7529297,0.0283203-5.2539063,0.0537109-5.4785156,0.0537109c-0.1513672,0.0019531-1.0009766,0.1220703-1.8232422,0.2382813
	c-1.8974609,0.2685547-4.4960938,0.6367188-5.6767578,0.6367188c-1.0097656,0-2.2451172-0.3378906-3.4394531-0.6640625
	c-0.9511719-0.2587891-1.8486328-0.5048828-2.3945313-0.5048828c-0.5634766,0-1.6933594,0.2646484-2.7871094,0.5205078
	c-1.3603516,0.3183594-2.7675781,0.6484375-3.7128906,0.6484375c-1.0234375,0-3.0654297-0.2597656-5.2275391-0.5351563
	c-1.4160156-0.1806641-2.8798828-0.3662109-3.9902344-0.4677734c-0.1914063-0.0175781-0.3876953-0.0253906-0.5869141-0.0253906
	c-2.3105469,0-5.1689453,1.1240234-6.3574219,1.7177734c-0.1806641,0.0908203-0.4736328,0.1787109-1.8828125,0.1787109
	c-3.1787109,0-10.1054688-0.4619141-13.8261719-0.7089844c-1.2832031-0.0859375-2.3916016-0.1591797-2.5449219-0.1591797
	c-0.4150391,0-2.6552734,0.6220703-4.5810547,1.2236328l-0.1689453,0.0263672h-74
	c-0.6923828,0.0224609-1.3759766,0.0322266-2.0322266,0.0322266c-6.1669922,0-9.8261719-0.9091797-10.3173828-1.0390625
	c-0.6640625-0.0595703-8.0214844-0.7021484-15.2519531-0.7021484c-5.1386719,0-9.0107422,0.3164063-11.5107422,0.9414063
	c-2.5898438,0.6474609-6.6308594,0.9755859-12.0112305,0.9755859c-7.8134766,0-15.8466797-0.703125-15.9267578-0.7109375
	l-104.3583984,0.0029297c-5.6318359,1.859375-11.7397461,2.2285156-16.2050781,2.4990234
	c-2.1000977,0.1269531-3.7587891,0.2265625-4.7661133,0.4462891
	C806.5107422,77.2338867,805.4726563,77.3022461,803.9775391,77.3022461z"/>
</svg>
